3nd year/Functional circuitry/lab4/program/04_lru_full/sim/dump.vcd
$date
	Mon Jun  3 16:52:24 2024
$end
$version
	Icarus Verilog
$end
$timescale
	1ps
$end
$scope module sm_testbench $end
$scope module sm_top $end
$scope module sm_cpu $end
$scope module rf $end
$var reg 32 ! \rf[0] [31:0] $end
$upscope $end
$upscope $end
$upscope $end
$upscope $end
$scope module sm_testbench $end
$scope module sm_top $end
$scope module sm_cpu $end
$scope module rf $end
$var reg 32 " \rf[1] [31:0] $end
$upscope $end
$upscope $end
$upscope $end
$upscope $end
$scope module sm_testbench $end
$scope module sm_top $end
$scope module sm_cpu $end
$scope module rf $end
$var reg 32 # \rf[2] [31:0] $end
$upscope $end
$upscope $end
$upscope $end
$upscope $end
$scope module sm_testbench $end
$scope module sm_top $end
$scope module sm_cpu $end
$scope module rf $end
$var reg 32 $ \rf[3] [31:0] $end
$upscope $end
$upscope $end
$upscope $end
$upscope $end
$scope module sm_testbench $end
$scope module sm_top $end
$scope module sm_cpu $end
$scope module rf $end
$var reg 32 % \rf[4] [31:0] $end
$upscope $end
$upscope $end
$upscope $end
$upscope $end
$scope module sm_testbench $end
$scope module sm_top $end
$scope module sm_cpu $end
$scope module rf $end
$var reg 32 & \rf[5] [31:0] $end
$upscope $end
$upscope $end
$upscope $end
$upscope $end
$scope module sm_testbench $end
$scope module sm_top $end
$scope module sm_cpu $end
$scope module rf $end
$var reg 32 ' \rf[6] [31:0] $end
$upscope $end
$upscope $end
$upscope $end
$upscope $end
$scope module sm_testbench $end
$scope module sm_top $end
$scope module sm_cpu $end
$scope module rf $end
$var reg 32 ( \rf[7] [31:0] $end
$upscope $end
$upscope $end
$upscope $end
$upscope $end
$scope module sm_testbench $end
$scope module sm_top $end
$scope module sm_cpu $end
$scope module rf $end
$var reg 32 ) \rf[8] [31:0] $end
$upscope $end
$upscope $end
$upscope $end
$upscope $end
$scope module sm_testbench $end
$scope module sm_top $end
$scope module sm_cpu $end
$scope module rf $end
$var reg 32 * \rf[9] [31:0] $end
$upscope $end
$upscope $end
$upscope $end
$upscope $end
$scope module sm_testbench $end
$scope module sm_top $end
$scope module sm_cpu $end
$scope module rf $end
$var reg 32 + \rf[10] [31:0] $end
$upscope $end
$upscope $end
$upscope $end
$upscope $end
$scope module sm_testbench $end
$scope module sm_top $end
$scope module sm_cpu $end
$scope module rf $end
$var reg 32 , \rf[11] [31:0] $end
$upscope $end
$upscope $end
$upscope $end
$upscope $end
$scope module sm_testbench $end
$scope module sm_top $end
$scope module sm_cpu $end
$scope module rf $end
$var reg 32 - \rf[12] [31:0] $end
$upscope $end
$upscope $end
$upscope $end
$upscope $end
$scope module sm_testbench $end
$scope module sm_top $end
$scope module sm_cpu $end
$scope module rf $end
$var reg 32 . \rf[13] [31:0] $end
$upscope $end
$upscope $end
$upscope $end
$upscope $end
$scope module sm_testbench $end
$scope module sm_top $end
$scope module sm_cpu $end
$scope module rf $end
$var reg 32 / \rf[14] [31:0] $end
$upscope $end
$upscope $end
$upscope $end
$upscope $end
$scope module sm_testbench $end
$scope module sm_top $end
$scope module sm_cpu $end
$scope module rf $end
$var reg 32 0 \rf[15] [31:0] $end
$upscope $end
$upscope $end
$upscope $end
$upscope $end
$scope module sm_testbench $end
$scope module sm_top $end
$scope module sm_cpu $end
$scope module rf $end
$var reg 32 1 \rf[16] [31:0] $end
$upscope $end
$upscope $end
$upscope $end
$upscope $end
$scope module sm_testbench $end
$scope module sm_top $end
$scope module sm_cpu $end
$scope module rf $end
$var reg 32 2 \rf[17] [31:0] $end
$upscope $end
$upscope $end
$upscope $end
$upscope $end
$scope module sm_testbench $end
$scope module sm_top $end
$scope module sm_cpu $end
$scope module rf $end
$var reg 32 3 \rf[18] [31:0] $end
$upscope $end
$upscope $end
$upscope $end
$upscope $end
$scope module sm_testbench $end
$scope module sm_top $end
$scope module sm_cpu $end
$scope module rf $end
$var reg 32 4 \rf[19] [31:0] $end
$upscope $end
$upscope $end
$upscope $end
$upscope $end
$scope module sm_testbench $end
$scope module sm_top $end
$scope module sm_cpu $end
$scope module rf $end
$var reg 32 5 \rf[20] [31:0] $end
$upscope $end
$upscope $end
$upscope $end
$upscope $end
$scope module sm_testbench $end
$scope module sm_top $end
$scope module sm_cpu $end
$scope module rf $end
$var reg 32 6 \rf[21] [31:0] $end
$upscope $end
$upscope $end
$upscope $end
$upscope $end
$scope module sm_testbench $end
$scope module sm_top $end
$scope module sm_cpu $end
$scope module rf $end
$var reg 32 7 \rf[22] [31:0] $end
$upscope $end
$upscope $end
$upscope $end
$upscope $end
$scope module sm_testbench $end
$scope module sm_top $end
$scope module sm_cpu $end
$scope module rf $end
$var reg 32 8 \rf[23] [31:0] $end
$upscope $end
$upscope $end
$upscope $end
$upscope $end
$scope module sm_testbench $end
$scope module sm_top $end
$scope module sm_cpu $end
$scope module rf $end
$var reg 32 9 \rf[24] [31:0] $end
$upscope $end
$upscope $end
$upscope $end
$upscope $end
$scope module sm_testbench $end
$scope module sm_top $end
$scope module sm_cpu $end
$scope module rf $end
$var reg 32 : \rf[25] [31:0] $end
$upscope $end
$upscope $end
$upscope $end
$upscope $end
$scope module sm_testbench $end
$scope module sm_top $end
$scope module sm_cpu $end
$scope module rf $end
$var reg 32 ; \rf[26] [31:0] $end
$upscope $end
$upscope $end
$upscope $end
$upscope $end
$scope module sm_testbench $end
$scope module sm_top $end
$scope module sm_cpu $end
$scope module rf $end
$var reg 32 < \rf[27] [31:0] $end
$upscope $end
$upscope $end
$upscope $end
$upscope $end
$scope module sm_testbench $end
$scope module sm_top $end
$scope module sm_cpu $end
$scope module rf $end
$var reg 32 = \rf[28] [31:0] $end
$upscope $end
$upscope $end
$upscope $end
$upscope $end
$scope module sm_testbench $end
$scope module sm_top $end
$scope module sm_cpu $end
$scope module rf $end
$var reg 32 > \rf[29] [31:0] $end
$upscope $end
$upscope $end
$upscope $end
$upscope $end
$scope module sm_testbench $end
$scope module sm_top $end
$scope module sm_cpu $end
$scope module rf $end
$var reg 32 ? \rf[30] [31:0] $end
$upscope $end
$upscope $end
$upscope $end
$upscope $end
$scope module sm_testbench $end
$scope module sm_top $end
$scope module sm_cpu $end
$scope module rf $end
$var reg 32 @ \rf[31] [31:0] $end
$upscope $end
$upscope $end
$upscope $end
$upscope $end
$scope module sm_testbench $end
$var wire 1 A cpuClk $end
$var reg 1 B clk $end
$var reg 1 C rst_n $end
$var integer 32 D cycle [31:0] $end
$scope begin genblk1[0] $end
$upscope $end
$scope begin genblk1[1] $end
$upscope $end
$scope begin genblk1[2] $end
$upscope $end
$scope begin genblk1[3] $end
$upscope $end
$scope begin genblk1[4] $end
$upscope $end
$scope begin genblk1[5] $end
$upscope $end
$scope begin genblk1[6] $end
$upscope $end
$scope begin genblk1[7] $end
$upscope $end
$scope begin genblk1[8] $end
$upscope $end
$scope begin genblk1[9] $end
$upscope $end
$scope begin genblk1[10] $end
$upscope $end
$scope begin genblk1[11] $end
$upscope $end
$scope begin genblk1[12] $end
$upscope $end
$scope begin genblk1[13] $end
$upscope $end
$scope begin genblk1[14] $end
$upscope $end
$scope begin genblk1[15] $end
$upscope $end
$scope begin genblk1[16] $end
$upscope $end
$scope begin genblk1[17] $end
$upscope $end
$scope begin genblk1[18] $end
$upscope $end
$scope begin genblk1[19] $end
$upscope $end
$scope begin genblk1[20] $end
$upscope $end
$scope begin genblk1[21] $end
$upscope $end
$scope begin genblk1[22] $end
$upscope $end
$scope begin genblk1[23] $end
$upscope $end
$scope begin genblk1[24] $end
$upscope $end
$scope begin genblk1[25] $end
$upscope $end
$scope begin genblk1[26] $end
$upscope $end
$scope begin genblk1[27] $end
$upscope $end
$scope begin genblk1[28] $end
$upscope $end
$scope begin genblk1[29] $end
$upscope $end
$scope begin genblk1[30] $end
$upscope $end
$scope begin genblk1[31] $end
$upscope $end
$scope module sm_top $end
$var wire 4 E clkDivide [3:0] $end
$var wire 1 F clkEnable $end
$var wire 1 B clkIn $end
$var wire 5 G regAddr [4:0] $end
$var wire 1 C rst_n $end
$var wire 32 H regData [31:0] $end
$var wire 32 I imData [31:0] $end
$var wire 32 J imAddr [31:0] $end
$var wire 1 K enable $end
$var wire 4 L divide [3:0] $end
$var wire 1 A clk $end
$var wire 5 M addr [4:0] $end
$scope module f0 $end
$var wire 1 B clk $end
$var wire 4 N d [3:0] $end
$var reg 4 O data [3:0] $end
$var reg 4 P q [3:0] $end
$upscope $end
$scope module f1 $end
$var wire 1 B clk $end
$var wire 1 F d $end
$var reg 1 Q data $end
$var reg 1 K q $end
$upscope $end
$scope module f2 $end
$var wire 1 B clk $end
$var wire 5 R d [4:0] $end
$var reg 5 S data [4:0] $end
$var reg 5 T q [4:0] $end
$upscope $end
$scope module reset_rom $end
$var wire 32 U rd [31:0] $end
$var wire 32 V a [31:0] $end
$upscope $end
$scope module sm_clk_divider $end
$var wire 1 B clkIn $end
$var wire 1 A clkOut $end
$var wire 4 W divide [3:0] $end
$var wire 1 K enable $end
$var wire 1 C rst_n $end
$var wire 32 X cntrNext [31:0] $end
$var wire 32 Y cntr [31:0] $end
$scope module r_cntr $end
$var wire 1 B clk $end
$var wire 32 Z d [31:0] $end
$var wire 1 C rst $end
$var wire 1 K we $end
$var reg 32 [ q [31:0] $end
$upscope $end
$upscope $end
$scope module sm_cpu $end
$var wire 1 A clk $end
$var wire 32 \ imData [31:0] $end
$var wire 32 ] instr [31:0] $end
$var wire 5 ^ regAddr [4:0] $end
$var wire 1 C rst_n $end
$var wire 1 _ wdSrc $end
$var wire 32 ` wd3 [31:0] $end
$var wire 32 a srcB [31:0] $end
$var wire 5 b rs2 [4:0] $end
$var wire 5 c rs1 [4:0] $end
$var wire 1 d regWrite $end
$var wire 32 e regData [31:0] $end
$var wire 32 f rd2 [31:0] $end
$var wire 32 g rd1 [31:0] $end
$var wire 32 h rd0 [31:0] $end
$var wire 5 i rd [4:0] $end
$var wire 1 j pcSrc $end
$var wire 32 k pcPlus4 [31:0] $end
$var wire 32 l pcNext [31:0] $end
$var wire 32 m pcBranch [31:0] $end
$var wire 32 n pc [31:0] $end
$var wire 32 o mux_lru_alu [31:0] $end
$var wire 1 p lruValidData $end
$var wire 1 q lruSrc $end
$var wire 4 r lruSW [3:0] $end
$var wire 16 s lruOut [15:0] $end
$var wire 32 t immU [31:0] $end
$var wire 32 u immI [31:0] $end
$var wire 32 v immB [31:0] $end
$var wire 32 w imAddr [31:0] $end
$var wire 7 x cmdOp [6:0] $end
$var wire 7 y cmdF7 [6:0] $end
$var wire 3 z cmdF3 [2:0] $end
$var wire 1 { aluZero $end
$var wire 1 | aluSrc $end
$var wire 32 } aluResult [31:0] $end
$var wire 3 ~ aluControl [2:0] $end
$scope module alu $end
$var wire 32 !" srcB [31:0] $end
$var wire 1 { zero $end
$var wire 32 "" srcA [31:0] $end
$var wire 3 #" oper [2:0] $end
$var reg 32 $" result [31:0] $end
$upscope $end
$scope module id $end
$var wire 32 %" instr [31:0] $end
$var wire 5 &" rs2 [4:0] $end
$var wire 5 '" rs1 [4:0] $end
$var wire 5 (" rd [4:0] $end
$var wire 7 )" cmdOp [6:0] $end
$var wire 7 *" cmdF7 [6:0] $end
$var wire 3 +" cmdF3 [2:0] $end
$var reg 32 ," immB [31:0] $end
$var reg 32 -" immI [31:0] $end
$var reg 32 ." immU [31:0] $end
$upscope $end
$scope module lru $end
$var wire 1 A clk $end
$var wire 16 /" data [15:0] $end
$var wire 16 0" out [15:0] $end
$var wire 1 1" rst $end
$var wire 4 2" sw [3:0] $end
$var wire 1 p valid_data $end
$var reg 1 3" hit $end
$var reg 4 4" hitIndex [3:0] $end
$var reg 1 5" valid_data_latched $end
$var integer 32 6" i [31:0] $end
$upscope $end
$scope module r_pc $end
$var wire 1 A clk $end
$var wire 32 7" d [31:0] $end
$var wire 1 C rst $end
$var reg 32 8" q [31:0] $end
$upscope $end
$scope module rf $end
$var wire 5 9" a0 [4:0] $end
$var wire 5 :" a1 [4:0] $end
$var wire 5 ;" a2 [4:0] $end
$var wire 5 <" a3 [4:0] $end
$var wire 1 A clk $end
$var wire 32 =" wd3 [31:0] $end
$var wire 1 d we3 $end
$var wire 32 >" rd2 [31:0] $end
$var wire 32 ?" rd1 [31:0] $end
$var wire 32 @" rd0 [31:0] $end
$upscope $end
$scope module sm_control $end
$var wire 1 { aluZero $end
$var wire 3 A" cmdF3 [2:0] $end
$var wire 7 B" cmdF7 [6:0] $end
$var wire 7 C" cmdOp [6:0] $end
$var wire 1 j pcSrc $end
$var reg 3 D" aluControl [2:0] $end
$var reg 1 | aluSrc $end
$var reg 1 E" branch $end
$var reg 1 F" condZero $end
$var reg 1 q lruSrc $end
$var reg 1 p lruVD $end
$var reg 1 d regWrite $end
$var reg 1 _ wdSrc $end
$upscope $end
$upscope $end
$upscope $end
$scope task disasmInstr $end
$var reg 3 G" cmdF3 [2:0] $end
$var reg 7 H" cmdF7 [6:0] $end
$var reg 7 I" cmdOp [6:0] $end
$var reg 32 J" immB [31:0] $end
$var reg 32 K" immI [31:0] $end
$var reg 32 L" immU [31:0] $end
$var reg 5 M" rd [4:0] $end
$var reg 5 N" rs1 [4:0] $end
$var reg 5 O" rs2 [4:0] $end
$upscope $end
$upscope $end
$enddefinitions $end
#0
$dumpvars
bx O"
bx N"
bx M"
bx L"
bx K"
bx J"
bx I"
bx H"
bx G"
0F"
0E"
b0 D"
b110011 C"
b0 B"
b0 A"
bx @"
b0 ?"
b0 >"
b0 ="
b1010 <"
b0 ;"
b0 :"
bx 9"
b0 8"
b100 7"
b1000 6"
x5"
b0 4"
03"
b0 2"
11"
bx 0"
b0 /"
b0 ."
b0 -"
b1010 ,"
b0 +"
b0 *"
b110011 )"
b1010 ("
b0 '"
b0 &"
b10100110011 %"
b0 $"
b0 #"
b0 ""
b0 !"
b0 ~
b0 }
0|
1{
b0 z
b0 y
b110011 x
b0 w
b1010 v
b0 u
b0 t
bx s
b0 r
0q
0p
b0 o
b0 n
b1010 m
b100 l
b100 k
0j
b1010 i
bx h
b0 g
b0 f
bx e
1d
b0 c
b0 b
b0 a
b0 `
0_
bx ^
b10100110011 ]
b10100110011 \
b0 [
b1 Z
b0 Y
b1 X
bx W
b0 V
b10100110011 U
bx T
bx S
b0 R
xQ
bx P
bx O
b0 N
bx M
bx L
xK
b0 J
b10100110011 I
bx H
b0 G
1F
b0 E
b0 D
0C
0B
0A
bx @
bx ?
bx >
bx =
bx <
bx ;
bx :
bx 9
bx 8
bx 7
bx 6
bx 5
bx 4
bx 3
bx 2
bx 1
bx 0
bx /
bx .
bx -
bx ,
bx +
bx *
bx )
bx (
bx '
bx &
bx %
bx $
bx #
bx "
bx !
$end
#10000
b111 4"
13"
b0 O
1Q
b0 S
b0 +
05"
b0 s
b0 0"
b1 D
b0 L"
b1010 J"
b0 K"
b0 H"
b0 O"
b0 N"
b0 G"
b1010 M"
b110011 I"
b1000 6"
1A
1B
#20000
0A
0B
#30000
b0 H
b0 e
b0 h
b0 @"
b0 M
b0 T
b0 ^
b0 9"
1K
b0 L
b0 P
b0 W
b0 +
b111 4"
13"
b10 D
b1000 6"
1A
1B
#40000
0A
0B
#50000
b0 +
b111 4"
13"
b11 D
b1000 6"
1A
1B
#60000
0A
0B
#70000
b0 +
01"
b111 4"
13"
b100 D
1C
b1000 6"
1A
1B
#80000
0A
0B
#90000
b1 `
b1 ="
b1 o
0{
b1 }
b1 $"
b1 a
b1 !"
1|
1d
bx f
bx >"
b1 u
b1 -"
b101010000000000000000 t
b101010000000000000000 ."
b10011 x
b10011 )"
b10011 C"
b1010 c
b1010 '"
b1010 :"
b1 b
b1 &"
b1 ;"
b100 H
b100 e
b101010000010100010011 ]
b101010000010100010011 %"
b101010000010100010011 I
b101010000010100010011 U
b101010000010100010011 \
b1 J
b1 V
b1 w
b1000 l
b1000 7"
b0 +
b1000 k
b1110 m
b100 n
b100 8"
b10 X
b10 Z
b1 Y
b1 [
b101 D
1A
1B
#100000
0A
0B
#110000
b1 `
b1 ="
b1000 6"
b111 4"
03"
b1 o
b0 a
b0 !"
1p
0|
0d
b0 f
b0 >"
b1 /"
b1 r
b1 2"
b1 }
b1 $"
b1010010000000000000 t
b1010010000000000000 ."
b0 v
b0 ,"
b0 u
b0 -"
b100011 x
b100011 )"
b100011 C"
b0 i
b0 ("
b0 <"
b10 z
b10 +"
b10 A"
b0 b
b0 &"
b0 ;"
b1 g
b1 ""
b1 ?"
b1000 H
b1000 e
b1010010000000100011 ]
b1010010000000100011 %"
b1010010000000100011 I
b1010010000000100011 U
b1010010000000100011 \
b10 J
b10 V
b10 w
b1100 l
b1100 7"
b1 +
b1100 k
b1000 m
b1000 n
b1000 8"
b11 X
b11 Z
b10 Y
b10 [
b110 D
b101010000000000000000 L"
b1 K"
b1 O"
b1010 N"
b10011 I"
1A
1B
#120000
0A
0B
#130000
b10 `
b10 ="
b10 o
b10 }
b10 $"
b1 a
b1 !"
1|
1d
0p
bx f
bx >"
b1 u
b1 -"
b1010 v
b1010 ,"
b101010000000000000000 t
b101010000000000000000 ."
b10011 x
b10011 )"
b10011 C"
b1010 i
b1010 ("
b1010 <"
b0 z
b0 +"
b0 A"
b1 b
b1 &"
b1 ;"
13"
b1100 H
b1100 e
b101010000010100010011 ]
b101010000010100010011 %"
b101010000010100010011 I
b101010000010100010011 U
b101010000010100010011 \
b11 J
b11 V
b11 w
b10000 l
b10000 7"
15"
b10000 k
b10110 m
b1100 n
b1100 8"
b100 X
b100 Z
b11 Y
b11 [
b111 4"
b111 D
b1010010000000000000 L"
b0 J"
b0 K"
b0 O"
b10 G"
b0 M"
b100011 I"
b1000 6"
1A
1B
#140000
0A
0B
#150000
b10 `
b10 ="
b1000 6"
b110 4"
03"
b10 o
b0 a
b0 !"
1p
0|
0d
b0 f
b0 >"
b10 /"
b10 r
b10 2"
b10 }
b10 $"
b1010010000000000000 t
b1010010000000000000 ."
b0 v
b0 ,"
b0 u
b0 -"
b100011 x
b100011 )"
b100011 C"
b0 i
b0 ("
b0 <"
b10 z
b10 +"
b10 A"
b0 b
b0 &"
b0 ;"
b10 g
b10 ""
b10 ?"
b10000 H
b10000 e
b1010010000000100011 ]
b1010010000000100011 %"
b1010010000000100011 I
b1010010000000100011 U
b1010010000000100011 \
b100 J
b100 V
b100 w
b10100 l
b10100 7"
05"
b10 +
b10100 k
b10000 m
b10000 n
b10000 8"
b101 X
b101 Z
b100 Y
b100 [
b1000 D
b101010000000000000000 L"
b1010 J"
b1 K"
b1 O"
b0 G"
b1010 M"
b10011 I"
1A
1B
#160000
0A
0B
#170000
b11 `
b11 ="
b11 o
b11 }
b11 $"
b1 a
b1 !"
1|
1d
0p
bx f
bx >"
b1 u
b1 -"
b1010 v
b1010 ,"
b101010000000000000000 t
b101010000000000000000 ."
b10011 x
b10011 )"
b10011 C"
b1010 i
b1010 ("
b1010 <"
b0 z
b0 +"
b0 A"
b1 b
b1 &"
b1 ;"
13"
b10100 H
b10100 e
b101010000010100010011 ]
b101010000010100010011 %"
b101010000010100010011 I
b101010000010100010011 U
b101010000010100010011 \
b101 J
b101 V
b101 w
b11000 l
b11000 7"
15"
b11000 k
b11110 m
b10100 n
b10100 8"
b110 X
b110 Z
b101 Y
b101 [
b110 4"
b1001 D
b1010010000000000000 L"
b0 J"
b0 K"
b0 O"
b10 G"
b0 M"
b100011 I"
b1000 6"
1A
1B
#180000
0A
0B
#190000
b11 `
b11 ="
b1000 6"
b101 4"
03"
b11 o
b0 a
b0 !"
1p
0|
0d
b0 f
b0 >"
b11 /"
b11 r
b11 2"
b11 }
b11 $"
b1010010000000000000 t
b1010010000000000000 ."
b0 v
b0 ,"
b0 u
b0 -"
b100011 x
b100011 )"
b100011 C"
b0 i
b0 ("
b0 <"
b10 z
b10 +"
b10 A"
b0 b
b0 &"
b0 ;"
b11 g
b11 ""
b11 ?"
b11000 H
b11000 e
b1010010000000100011 ]
b1010010000000100011 %"
b1010010000000100011 I
b1010010000000100011 U
b1010010000000100011 \
b110 J
b110 V
b110 w
b11100 l
b11100 7"
05"
b11 +
b11100 k
b11000 m
b11000 n
b11000 8"
b111 X
b111 Z
b110 Y
b110 [
b1010 D
b101010000000000000000 L"
b1010 J"
b1 K"
b1 O"
b0 G"
b1010 M"
b10011 I"
1A
1B
#200000
0A
0B
#210000
b100 `
b100 ="
b100 o
b100 }
b100 $"
b1 a
b1 !"
1|
1d
0p
bx f
bx >"
b1 u
b1 -"
b1010 v
b1010 ,"
b101010000000000000000 t
b101010000000000000000 ."
b10011 x
b10011 )"
b10011 C"
b1010 i
b1010 ("
b1010 <"
b0 z
b0 +"
b0 A"
b1 b
b1 &"
b1 ;"
13"
b11100 H
b11100 e
b101010000010100010011 ]
b101010000010100010011 %"
b101010000010100010011 I
b101010000010100010011 U
b101010000010100010011 \
b111 J
b111 V
b111 w
b100000 l
b100000 7"
15"
b100000 k
b100110 m
b11100 n
b11100 8"
b1000 X
b1000 Z
b111 Y
b111 [
b101 4"
b1011 D
b1010010000000000000 L"
b0 J"
b0 K"
b0 O"
b10 G"
b0 M"
b100011 I"
b1000 6"
1A
1B
#220000
0A
0B
#230000
b100 `
b100 ="
b1000 6"
b100 4"
03"
b100 o
b0 a
b0 !"
1p
0|
0d
b0 f
b0 >"
b100 /"
b100 r
b100 2"
b100 }
b100 $"
b1010010000000000000 t
b1010010000000000000 ."
b0 v
b0 ,"
b0 u
b0 -"
b100011 x
b100011 )"
b100011 C"
b0 i
b0 ("
b0 <"
b10 z
b10 +"
b10 A"
b0 b
b0 &"
b0 ;"
b100 g
b100 ""
b100 ?"
b100000 H
b100000 e
b1010010000000100011 ]
b1010010000000100011 %"
b1010010000000100011 I
b1010010000000100011 U
b1010010000000100011 \
b1000 J
b1000 V
b1000 w
b100100 l
b100100 7"
05"
b100 +
b100100 k
b100000 m
b100000 n
b100000 8"
b1001 X
b1001 Z
b1000 Y
b1000 [
b1100 D
b101010000000000000000 L"
b1010 J"
b1 K"
b1 O"
b0 G"
b1010 M"
b10011 I"
1A
1B
#240000
0A
0B
#250000
b101 `
b101 ="
b101 o
b101 }
b101 $"
b1 a
b1 !"
1|
1d
0p
bx f
bx >"
b1 u
b1 -"
b1010 v
b1010 ,"
b101010000000000000000 t
b101010000000000000000 ."
b10011 x
b10011 )"
b10011 C"
b1010 i
b1010 ("
b1010 <"
b0 z
b0 +"
b0 A"
b1 b
b1 &"
b1 ;"
13"
b100100 H
b100100 e
b101010000010100010011 ]
b101010000010100010011 %"
b101010000010100010011 I
b101010000010100010011 U
b101010000010100010011 \
b1001 J
b1001 V
b1001 w
b101000 l
b101000 7"
15"
b100 s
b100 0"
b101000 k
b101110 m
b100100 n
b100100 8"
b1010 X
b1010 Z
b1001 Y
b1001 [
b100 4"
b1101 D
b1010010000000000000 L"
b0 J"
b0 K"
b0 O"
b10 G"
b0 M"
b100011 I"
b1000 6"
1A
1B
#260000
0A
0B
#270000
b101 `
b101 ="
b1000 6"
b11 4"
03"
b101 o
b0 a
b0 !"
1p
0|
0d
b0 f
b0 >"
b101 /"
b11 s
b11 0"
b101 r
b101 2"
b101 }
b101 $"
b1010010000000000000 t
b1010010000000000000 ."
b0 v
b0 ,"
b0 u
b0 -"
b100011 x
b100011 )"
b100011 C"
b0 i
b0 ("
b0 <"
b10 z
b10 +"
b10 A"
b0 b
b0 &"
b0 ;"
b101 g
b101 ""
b101 ?"
b101000 H
b101000 e
b1010010000000100011 ]
b1010010000000100011 %"
b1010010000000100011 I
b1010010000000100011 U
b1010010000000100011 \
b1010 J
b1010 V
b1010 w
b101100 l
b101100 7"
05"
b101 +
b101100 k
b101000 m
b101000 n
b101000 8"
b1011 X
b1011 Z
b1010 Y
b1010 [
b1110 D
b101010000000000000000 L"
b1010 J"
b1 K"
b1 O"
b0 G"
b1010 M"
b10011 I"
1A
1B
#280000
0A
0B
#290000
b110 `
b110 ="
b110 o
b110 }
b110 $"
b1 a
b1 !"
1|
1d
0p
bx f
bx >"
b1 u
b1 -"
b1010 v
b1010 ,"
b101010000000000000000 t
b101010000000000000000 ."
b10011 x
b10011 )"
b10011 C"
b1010 i
b1010 ("
b1010 <"
b0 z
b0 +"
b0 A"
b1 b
b1 &"
b1 ;"
13"
b101100 H
b101100 e
b101010000010100010011 ]
b101010000010100010011 %"
b101010000010100010011 I
b101010000010100010011 U
b101010000010100010011 \
b1011 J
b1011 V
b1011 w
b110000 l
b110000 7"
15"
b110000 k
b110110 m
b101100 n
b101100 8"
b1100 X
b1100 Z
b1011 Y
b1011 [
b11 4"
b1111 D
b1010010000000000000 L"
b0 J"
b0 K"
b0 O"
b10 G"
b0 M"
b100011 I"
b1000 6"
1A
1B
#300000
0A
0B
#310000
b110 `
b110 ="
b1000 6"
b10 4"
03"
b110 o
b0 a
b0 !"
1p
0|
0d
b0 f
b0 >"
b110 /"
b10 s
b10 0"
b110 r
b110 2"
b110 }
b110 $"
b1010010000000000000 t
b1010010000000000000 ."
b0 v
b0 ,"
b0 u
b0 -"
b100011 x
b100011 )"
b100011 C"
b0 i
b0 ("
b0 <"
b10 z
b10 +"
b10 A"
b0 b
b0 &"
b0 ;"
b110 g
b110 ""
b110 ?"
b110000 H
b110000 e
b1010010000000100011 ]
b1010010000000100011 %"
b1010010000000100011 I
b1010010000000100011 U
b1010010000000100011 \
b1100 J
b1100 V
b1100 w
b110100 l
b110100 7"
05"
b110 +
b110100 k
b110000 m
b110000 n
b110000 8"
b1101 X
b1101 Z
b1100 Y
b1100 [
b10000 D
b101010000000000000000 L"
b1010 J"
b1 K"
b1 O"
b0 G"
b1010 M"
b10011 I"
1A
1B
#320000
0A
0B
#330000
b111 `
b111 ="
b111 o
b111 }
b111 $"
b1 a
b1 !"
1|
1d
0p
bx f
bx >"
b1 u
b1 -"
b1010 v
b1010 ,"
b101010000000000000000 t
b101010000000000000000 ."
b10011 x
b10011 )"
b10011 C"
b1010 i
b1010 ("
b1010 <"
b0 z
b0 +"
b0 A"
b1 b
b1 &"
b1 ;"
13"
b110100 H
b110100 e
b101010000010100010011 ]
b101010000010100010011 %"
b101010000010100010011 I
b101010000010100010011 U
b101010000010100010011 \
b1101 J
b1101 V
b1101 w
b111000 l
b111000 7"
15"
b111000 k
b111110 m
b110100 n
b110100 8"
b1110 X
b1110 Z
b1101 Y
b1101 [
b10 4"
b10001 D
b1010010000000000000 L"
b0 J"
b0 K"
b0 O"
b10 G"
b0 M"
b100011 I"
b1000 6"
1A
1B
#340000
0A
0B
#350000
b111 `
b111 ="
b1000 6"
b1 4"
03"
b111 o
b0 a
b0 !"
1p
0|
0d
b0 f
b0 >"
b111 /"
b1 s
b1 0"
b111 r
b111 2"
b111 }
b111 $"
b1010010000000000000 t
b1010010000000000000 ."
b0 v
b0 ,"
b0 u
b0 -"
b100011 x
b100011 )"
b100011 C"
b0 i
b0 ("
b0 <"
b10 z
b10 +"
b10 A"
b0 b
b0 &"
b0 ;"
b111 g
b111 ""
b111 ?"
b111000 H
b111000 e
b1010010000000100011 ]
b1010010000000100011 %"
b1010010000000100011 I
b1010010000000100011 U
b1010010000000100011 \
b1110 J
b1110 V
b1110 w
b111100 l
b111100 7"
05"
b111 +
b111100 k
b111000 m
b111000 n
b111000 8"
b1111 X
b1111 Z
b1110 Y
b1110 [
b10010 D
b101010000000000000000 L"
b1010 J"
b1 K"
b1 O"
b0 G"
b1010 M"
b10011 I"
1A
1B
#360000
0A
0B
#370000
b1000 `
b1000 ="
b1000 o
b1000 }
b1000 $"
b1 a
b1 !"
1|
1d
0p
bx f
bx >"
b1 u
b1 -"
b1010 v
b1010 ,"
b101010000000000000000 t
b101010000000000000000 ."
b10011 x
b10011 )"
b10011 C"
b1010 i
b1010 ("
b1010 <"
b0 z
b0 +"
b0 A"
b1 b
b1 &"
b1 ;"
13"
b111100 H
b111100 e
b101010000010100010011 ]
b101010000010100010011 %"
b101010000010100010011 I
b101010000010100010011 U
b101010000010100010011 \
b1111 J
b1111 V
b1111 w
b1000000 l
b1000000 7"
15"
b1000000 k
b1000110 m
b111100 n
b111100 8"
b10000 X
b10000 Z
b1111 Y
b1111 [
b1 4"
b10011 D
b1010010000000000000 L"
b0 J"
b0 K"
b0 O"
b10 G"
b0 M"
b100011 I"
b1000 6"
1A
1B
#380000
0A
0B
#390000
b1000 `
b1000 ="
b1000 6"
b0 4"
03"
b1000 o
b0 a
b0 !"
1p
0|
0d
b0 f
b0 >"
b1000 /"
bx s
bx 0"
b1000 r
b1000 2"
b1000 }
b1000 $"
b1010010000000000000 t
b1010010000000000000 ."
b0 v
b0 ,"
b0 u
b0 -"
b100011 x
b100011 )"
b100011 C"
b0 i
b0 ("
b0 <"
b10 z
b10 +"
b10 A"
b0 b
b0 &"
b0 ;"
b1000 g
b1000 ""
b1000 ?"
b1000000 H
b1000000 e
b1010010000000100011 ]
b1010010000000100011 %"
b1010010000000100011 I
b1010010000000100011 U
b1010010000000100011 \
b10000 J
b10000 V
b10000 w
b1000100 l
b1000100 7"
05"
b1000 +
b1000100 k
b1000000 m
b1000000 n
b1000000 8"
b10001 X
b10001 Z
b10000 Y
b10000 [
b10100 D
b101010000000000000000 L"
b1010 J"
b1 K"
b1 O"
b0 G"
b1010 M"
b10011 I"
1A
1B
#400000
0A
0B
