3nd year/Functional circuitry/lab4/program/00_counter/sim/dump.vcd
$date
	Mon May 20 15:56:56 2024
$end
$version
	Icarus Verilog
$end
$timescale
	100ps
$end
$scope module sm_testbench $end
$scope module sm_top $end
$scope module sm_cpu $end
$scope module rf $end
$var reg 32 ! \rf[0] [31:0] $end
$upscope $end
$upscope $end
$upscope $end
$upscope $end
$scope module sm_testbench $end
$scope module sm_top $end
$scope module sm_cpu $end
$scope module rf $end
$var reg 32 " \rf[1] [31:0] $end
$upscope $end
$upscope $end
$upscope $end
$upscope $end
$scope module sm_testbench $end
$scope module sm_top $end
$scope module sm_cpu $end
$scope module rf $end
$var reg 32 # \rf[2] [31:0] $end
$upscope $end
$upscope $end
$upscope $end
$upscope $end
$scope module sm_testbench $end
$scope module sm_top $end
$scope module sm_cpu $end
$scope module rf $end
$var reg 32 $ \rf[3] [31:0] $end
$upscope $end
$upscope $end
$upscope $end
$upscope $end
$scope module sm_testbench $end
$scope module sm_top $end
$scope module sm_cpu $end
$scope module rf $end
$var reg 32 % \rf[4] [31:0] $end
$upscope $end
$upscope $end
$upscope $end
$upscope $end
$scope module sm_testbench $end
$scope module sm_top $end
$scope module sm_cpu $end
$scope module rf $end
$var reg 32 & \rf[5] [31:0] $end
$upscope $end
$upscope $end
$upscope $end
$upscope $end
$scope module sm_testbench $end
$scope module sm_top $end
$scope module sm_cpu $end
$scope module rf $end
$var reg 32 ' \rf[6] [31:0] $end
$upscope $end
$upscope $end
$upscope $end
$upscope $end
$scope module sm_testbench $end
$scope module sm_top $end
$scope module sm_cpu $end
$scope module rf $end
$var reg 32 ( \rf[7] [31:0] $end
$upscope $end
$upscope $end
$upscope $end
$upscope $end
$scope module sm_testbench $end
$scope module sm_top $end
$scope module sm_cpu $end
$scope module rf $end
$var reg 32 ) \rf[8] [31:0] $end
$upscope $end
$upscope $end
$upscope $end
$upscope $end
$scope module sm_testbench $end
$scope module sm_top $end
$scope module sm_cpu $end
$scope module rf $end
$var reg 32 * \rf[9] [31:0] $end
$upscope $end
$upscope $end
$upscope $end
$upscope $end
$scope module sm_testbench $end
$scope module sm_top $end
$scope module sm_cpu $end
$scope module rf $end
$var reg 32 + \rf[10] [31:0] $end
$upscope $end
$upscope $end
$upscope $end
$upscope $end
$scope module sm_testbench $end
$scope module sm_top $end
$scope module sm_cpu $end
$scope module rf $end
$var reg 32 , \rf[11] [31:0] $end
$upscope $end
$upscope $end
$upscope $end
$upscope $end
$scope module sm_testbench $end
$scope module sm_top $end
$scope module sm_cpu $end
$scope module rf $end
$var reg 32 - \rf[12] [31:0] $end
$upscope $end
$upscope $end
$upscope $end
$upscope $end
$scope module sm_testbench $end
$scope module sm_top $end
$scope module sm_cpu $end
$scope module rf $end
$var reg 32 . \rf[13] [31:0] $end
$upscope $end
$upscope $end
$upscope $end
$upscope $end
$scope module sm_testbench $end
$scope module sm_top $end
$scope module sm_cpu $end
$scope module rf $end
$var reg 32 / \rf[14] [31:0] $end
$upscope $end
$upscope $end
$upscope $end
$upscope $end
$scope module sm_testbench $end
$scope module sm_top $end
$scope module sm_cpu $end
$scope module rf $end
$var reg 32 0 \rf[15] [31:0] $end
$upscope $end
$upscope $end
$upscope $end
$upscope $end
$scope module sm_testbench $end
$scope module sm_top $end
$scope module sm_cpu $end
$scope module rf $end
$var reg 32 1 \rf[16] [31:0] $end
$upscope $end
$upscope $end
$upscope $end
$upscope $end
$scope module sm_testbench $end
$scope module sm_top $end
$scope module sm_cpu $end
$scope module rf $end
$var reg 32 2 \rf[17] [31:0] $end
$upscope $end
$upscope $end
$upscope $end
$upscope $end
$scope module sm_testbench $end
$scope module sm_top $end
$scope module sm_cpu $end
$scope module rf $end
$var reg 32 3 \rf[18] [31:0] $end
$upscope $end
$upscope $end
$upscope $end
$upscope $end
$scope module sm_testbench $end
$scope module sm_top $end
$scope module sm_cpu $end
$scope module rf $end
$var reg 32 4 \rf[19] [31:0] $end
$upscope $end
$upscope $end
$upscope $end
$upscope $end
$scope module sm_testbench $end
$scope module sm_top $end
$scope module sm_cpu $end
$scope module rf $end
$var reg 32 5 \rf[20] [31:0] $end
$upscope $end
$upscope $end
$upscope $end
$upscope $end
$scope module sm_testbench $end
$scope module sm_top $end
$scope module sm_cpu $end
$scope module rf $end
$var reg 32 6 \rf[21] [31:0] $end
$upscope $end
$upscope $end
$upscope $end
$upscope $end
$scope module sm_testbench $end
$scope module sm_top $end
$scope module sm_cpu $end
$scope module rf $end
$var reg 32 7 \rf[22] [31:0] $end
$upscope $end
$upscope $end
$upscope $end
$upscope $end
$scope module sm_testbench $end
$scope module sm_top $end
$scope module sm_cpu $end
$scope module rf $end
$var reg 32 8 \rf[23] [31:0] $end
$upscope $end
$upscope $end
$upscope $end
$upscope $end
$scope module sm_testbench $end
$scope module sm_top $end
$scope module sm_cpu $end
$scope module rf $end
$var reg 32 9 \rf[24] [31:0] $end
$upscope $end
$upscope $end
$upscope $end
$upscope $end
$scope module sm_testbench $end
$scope module sm_top $end
$scope module sm_cpu $end
$scope module rf $end
$var reg 32 : \rf[25] [31:0] $end
$upscope $end
$upscope $end
$upscope $end
$upscope $end
$scope module sm_testbench $end
$scope module sm_top $end
$scope module sm_cpu $end
$scope module rf $end
$var reg 32 ; \rf[26] [31:0] $end
$upscope $end
$upscope $end
$upscope $end
$upscope $end
$scope module sm_testbench $end
$scope module sm_top $end
$scope module sm_cpu $end
$scope module rf $end
$var reg 32 < \rf[27] [31:0] $end
$upscope $end
$upscope $end
$upscope $end
$upscope $end
$scope module sm_testbench $end
$scope module sm_top $end
$scope module sm_cpu $end
$scope module rf $end
$var reg 32 = \rf[28] [31:0] $end
$upscope $end
$upscope $end
$upscope $end
$upscope $end
$scope module sm_testbench $end
$scope module sm_top $end
$scope module sm_cpu $end
$scope module rf $end
$var reg 32 > \rf[29] [31:0] $end
$upscope $end
$upscope $end
$upscope $end
$upscope $end
$scope module sm_testbench $end
$scope module sm_top $end
$scope module sm_cpu $end
$scope module rf $end
$var reg 32 ? \rf[30] [31:0] $end
$upscope $end
$upscope $end
$upscope $end
$upscope $end
$scope module sm_testbench $end
$scope module sm_top $end
$scope module sm_cpu $end
$scope module rf $end
$var reg 32 @ \rf[31] [31:0] $end
$upscope $end
$upscope $end
$upscope $end
$upscope $end
$scope module sm_testbench $end
$var wire 1 A cpuClk $end
$var reg 1 B clk $end
$var reg 1 C rst_n $end
$var integer 32 D cycle [31:0] $end
$scope begin genblk1[0] $end
$upscope $end
$scope begin genblk1[1] $end
$upscope $end
$scope begin genblk1[2] $end
$upscope $end
$scope begin genblk1[3] $end
$upscope $end
$scope begin genblk1[4] $end
$upscope $end
$scope begin genblk1[5] $end
$upscope $end
$scope begin genblk1[6] $end
$upscope $end
$scope begin genblk1[7] $end
$upscope $end
$scope begin genblk1[8] $end
$upscope $end
$scope begin genblk1[9] $end
$upscope $end
$scope begin genblk1[10] $end
$upscope $end
$scope begin genblk1[11] $end
$upscope $end
$scope begin genblk1[12] $end
$upscope $end
$scope begin genblk1[13] $end
$upscope $end
$scope begin genblk1[14] $end
$upscope $end
$scope begin genblk1[15] $end
$upscope $end
$scope begin genblk1[16] $end
$upscope $end
$scope begin genblk1[17] $end
$upscope $end
$scope begin genblk1[18] $end
$upscope $end
$scope begin genblk1[19] $end
$upscope $end
$scope begin genblk1[20] $end
$upscope $end
$scope begin genblk1[21] $end
$upscope $end
$scope begin genblk1[22] $end
$upscope $end
$scope begin genblk1[23] $end
$upscope $end
$scope begin genblk1[24] $end
$upscope $end
$scope begin genblk1[25] $end
$upscope $end
$scope begin genblk1[26] $end
$upscope $end
$scope begin genblk1[27] $end
$upscope $end
$scope begin genblk1[28] $end
$upscope $end
$scope begin genblk1[29] $end
$upscope $end
$scope begin genblk1[30] $end
$upscope $end
$scope begin genblk1[31] $end
$upscope $end
$scope module sm_top $end
$var wire 4 E clkDivide [3:0] $end
$var wire 1 F clkEnable $end
$var wire 1 B clkIn $end
$var wire 5 G regAddr [4:0] $end
$var wire 1 C rst_n $end
$var wire 32 H regData [31:0] $end
$var wire 32 I imData [31:0] $end
$var wire 32 J imAddr [31:0] $end
$var wire 1 K enable $end
$var wire 4 L divide [3:0] $end
$var wire 1 A clk $end
$var wire 5 M addr [4:0] $end
$scope module f0 $end
$var wire 1 B clk $end
$var wire 4 N d [3:0] $end
$var reg 4 O data [3:0] $end
$var reg 4 P q [3:0] $end
$upscope $end
$scope module f1 $end
$var wire 1 B clk $end
$var wire 1 F d $end
$var reg 1 Q data $end
$var reg 1 K q $end
$upscope $end
$scope module f2 $end
$var wire 1 B clk $end
$var wire 5 R d [4:0] $end
$var reg 5 S data [4:0] $end
$var reg 5 T q [4:0] $end
$upscope $end
$scope module reset_rom $end
$var wire 32 U rd [31:0] $end
$var wire 32 V a [31:0] $end
$upscope $end
$scope module sm_clk_divider $end
$var wire 1 B clkIn $end
$var wire 1 A clkOut $end
$var wire 4 W divide [3:0] $end
$var wire 1 K enable $end
$var wire 1 C rst_n $end
$var wire 32 X cntrNext [31:0] $end
$var wire 32 Y cntr [31:0] $end
$scope module r_cntr $end
$var wire 1 B clk $end
$var wire 32 Z d [31:0] $end
$var wire 1 C rst $end
$var wire 1 K we $end
$var reg 32 [ q [31:0] $end
$upscope $end
$upscope $end
$scope module sm_cpu $end
$var wire 1 A clk $end
$var wire 32 \ imData [31:0] $end
$var wire 32 ] instr [31:0] $end
$var wire 5 ^ regAddr [4:0] $end
$var wire 1 C rst_n $end
$var wire 1 _ wdSrc $end
$var wire 32 ` wd3 [31:0] $end
$var wire 32 a srcB [31:0] $end
$var wire 5 b rs2 [4:0] $end
$var wire 5 c rs1 [4:0] $end
$var wire 1 d regWrite $end
$var wire 32 e regData [31:0] $end
$var wire 32 f rd2 [31:0] $end
$var wire 32 g rd1 [31:0] $end
$var wire 32 h rd0 [31:0] $end
$var wire 5 i rd [4:0] $end
$var wire 1 j pcSrc $end
$var wire 32 k pcPlus4 [31:0] $end
$var wire 32 l pcNext [31:0] $end
$var wire 32 m pcBranch [31:0] $end
$var wire 32 n pc [31:0] $end
$var wire 32 o immU [31:0] $end
$var wire 32 p immI [31:0] $end
$var wire 32 q immB [31:0] $end
$var wire 32 r imAddr [31:0] $end
$var wire 7 s cmdOp [6:0] $end
$var wire 7 t cmdF7 [6:0] $end
$var wire 3 u cmdF3 [2:0] $end
$var wire 1 v aluZero $end
$var wire 1 w aluSrc $end
$var wire 32 x aluResult [31:0] $end
$var wire 3 y aluControl [2:0] $end
$scope module alu $end
$var wire 32 z srcB [31:0] $end
$var wire 1 v zero $end
$var wire 32 { srcA [31:0] $end
$var wire 3 | oper [2:0] $end
$var reg 32 } result [31:0] $end
$upscope $end
$scope module id $end
$var wire 32 ~ instr [31:0] $end
$var wire 5 !" rs2 [4:0] $end
$var wire 5 "" rs1 [4:0] $end
$var wire 5 #" rd [4:0] $end
$var wire 7 $" cmdOp [6:0] $end
$var wire 7 %" cmdF7 [6:0] $end
$var wire 3 &" cmdF3 [2:0] $end
$var reg 32 '" immB [31:0] $end
$var reg 32 (" immI [31:0] $end
$var reg 32 )" immU [31:0] $end
$upscope $end
$scope module r_pc $end
$var wire 1 A clk $end
$var wire 32 *" d [31:0] $end
$var wire 1 C rst $end
$var reg 32 +" q [31:0] $end
$upscope $end
$scope module rf $end
$var wire 5 ," a0 [4:0] $end
$var wire 5 -" a1 [4:0] $end
$var wire 5 ." a2 [4:0] $end
$var wire 5 /" a3 [4:0] $end
$var wire 1 A clk $end
$var wire 32 0" wd3 [31:0] $end
$var wire 1 d we3 $end
$var wire 32 1" rd2 [31:0] $end
$var wire 32 2" rd1 [31:0] $end
$var wire 32 3" rd0 [31:0] $end
$upscope $end
$scope module sm_control $end
$var wire 1 v aluZero $end
$var wire 3 4" cmdF3 [2:0] $end
$var wire 7 5" cmdF7 [6:0] $end
$var wire 7 6" cmdOp [6:0] $end
$var wire 1 j pcSrc $end
$var reg 3 7" aluControl [2:0] $end
$var reg 1 w aluSrc $end
$var reg 1 8" branch $end
$var reg 1 9" condZero $end
$var reg 1 d regWrite $end
$var reg 1 _ wdSrc $end
$upscope $end
$upscope $end
$upscope $end
$scope task disasmInstr $end
$var reg 3 :" cmdF3 [2:0] $end
$var reg 7 ;" cmdF7 [6:0] $end
$var reg 7 <" cmdOp [6:0] $end
$var reg 32 =" immB [31:0] $end
$var reg 32 >" immI [31:0] $end
$var reg 32 ?" immU [31:0] $end
$var reg 5 @" rd [4:0] $end
$var reg 5 A" rs1 [4:0] $end
$var reg 5 B" rs2 [4:0] $end
$upscope $end
$upscope $end
$enddefinitions $end
#0
$dumpvars
bx B"
bx A"
bx @"
bx ?"
bx >"
bx ="
bx <"
bx ;"
bx :"
09"
08"
b0 7"
b110011 6"
b0 5"
b0 4"
bx 3"
b0 2"
b0 1"
b0 0"
b1010 /"
b0 ."
b0 -"
bx ,"
b0 +"
b100 *"
b0 )"
b0 ("
b1010 '"
b0 &"
b0 %"
b110011 $"
b1010 #"
b0 ""
b0 !"
b10100110011 ~
b0 }
b0 |
b0 {
b0 z
b0 y
b0 x
0w
1v
b0 u
b0 t
b110011 s
b0 r
b1010 q
b0 p
b0 o
b0 n
b1010 m
b100 l
b100 k
0j
b1010 i
bx h
b0 g
b0 f
bx e
1d
b0 c
b0 b
b0 a
b0 `
0_
bx ^
b10100110011 ]
b10100110011 \
b0 [
b1 Z
b0 Y
b1 X
bx W
b0 V
b10100110011 U
bx T
bx S
b0 R
xQ
bx P
bx O
b0 N
bx M
bx L
xK
b0 J
b10100110011 I
bx H
b0 G
1F
b0 E
b0 D
0C
0B
0A
bx @
bx ?
bx >
bx =
bx <
bx ;
bx :
bx 9
bx 8
bx 7
bx 6
bx 5
bx 4
bx 3
bx 2
bx 1
bx 0
bx /
bx .
bx -
bx ,
bx +
bx *
bx )
bx (
bx '
bx &
bx %
bx $
bx #
bx "
bx !
$end
#100
b0 O
1Q
b0 S
b0 +
b1 D
b0 ?"
b1010 ="
b0 >"
b0 ;"
b0 B"
b0 A"
b0 :"
b1010 @"
b110011 <"
1A
1B
#200
0A
0B
#300
b0 H
b0 e
b0 h
b0 3"
b0 M
b0 T
b0 ^
b0 ,"
1K
b0 L
b0 P
b0 W
b0 +
b10 D
1A
1B
#400
0A
0B
#500
b0 +
b11 D
1A
1B
#600
0A
0B
#700
b0 +
b100 D
1C
1A
1B
#800
0A
0B
#900
b1 `
b1 0"
0v
b1 x
b1 }
b1 a
b1 z
1w
1d
bx f
bx 1"
b1 p
b1 ("
b101010000000000000000 o
b101010000000000000000 )"
b10011 s
b10011 $"
b10011 6"
b1010 c
b1010 ""
b1010 -"
b1 b
b1 !"
b1 ."
b100 H
b100 e
b101010000010100010011 ]
b101010000010100010011 ~
b101010000010100010011 I
b101010000010100010011 U
b101010000010100010011 \
b1 J
b1 V
b1 r
b1000 l
b1000 *"
b1000 k
b1110 m
b100 n
b100 +"
b0 +
b10 X
b10 Z
b1 Y
b1 [
b101 D
1A
1B
#1000
0A
0B
#1100
1v
1j
b0 a
b0 z
b0 f
b0 1"
b100 y
b100 |
b100 7"
19"
18"
0w
0d
b0 `
b0 0"
b11111110000000000000000000000000 o
b11111110000000000000000000000000 )"
b11111111111111111111111111111100 q
b11111111111111111111111111111100 '"
b11111111111111111111111111100000 p
b11111111111111111111111111100000 ("
b1100011 s
b1100011 $"
b1100011 6"
b11101 i
b11101 #"
b11101 /"
b0 c
b0 ""
b0 -"
b0 b
b0 !"
b0 ."
b1111111 t
b1111111 %"
b1111111 5"
b0 x
b0 }
b1000 H
b1000 e
b11111110000000000000111011100011 ]
b11111110000000000000111011100011 ~
b11111110000000000000111011100011 I
b11111110000000000000111011100011 U
b11111110000000000000111011100011 \
b10 J
b10 V
b10 r
b100 l
b100 *"
b0 g
b0 {
b0 2"
b1100 k
b100 m
b1000 n
b1000 +"
b1 +
b11 X
b11 Z
b10 Y
b10 [
b110 D
b101010000000000000000 ?"
b1 >"
b1 B"
b1010 A"
b10011 <"
1A
1B
#1200
0A
0B
#1300
b10 `
b10 0"
b1 a
b1 z
0v
b10 x
b10 }
0j
b1 g
b1 {
b1 2"
bx f
bx 1"
1w
1d
b0 y
b0 |
b0 7"
09"
08"
b1 p
b1 ("
b1010 q
b1010 '"
b101010000000000000000 o
b101010000000000000000 )"
b10011 s
b10011 $"
b10011 6"
b1010 i
b1010 #"
b1010 /"
b1010 c
b1010 ""
b1010 -"
b1 b
b1 !"
b1 ."
b0 t
b0 %"
b0 5"
b100 H
b100 e
b101010000010100010011 ]
b101010000010100010011 ~
b101010000010100010011 I
b101010000010100010011 U
b101010000010100010011 \
b1 J
b1 V
b1 r
b1000 l
b1000 *"
b1000 k
b1110 m
b100 n
b100 +"
b100 X
b100 Z
b11 Y
b11 [
b111 D
b11111110000000000000000000000000 ?"
b11111111111111111111111111111100 ="
b11111111111111111111111111100000 >"
b1111111 ;"
b0 B"
b0 A"
b11101 @"
b1100011 <"
1A
1B
#1400
0A
0B
#1500
1v
1j
b0 a
b0 z
b0 f
b0 1"
b100 y
b100 |
b100 7"
19"
18"
0w
0d
b0 `
b0 0"
b11111110000000000000000000000000 o
b11111110000000000000000000000000 )"
b11111111111111111111111111111100 q
b11111111111111111111111111111100 '"
b11111111111111111111111111100000 p
b11111111111111111111111111100000 ("
b1100011 s
b1100011 $"
b1100011 6"
b11101 i
b11101 #"
b11101 /"
b0 c
b0 ""
b0 -"
b0 b
b0 !"
b0 ."
b1111111 t
b1111111 %"
b1111111 5"
b0 x
b0 }
b1000 H
b1000 e
b11111110000000000000111011100011 ]
b11111110000000000000111011100011 ~
b11111110000000000000111011100011 I
b11111110000000000000111011100011 U
b11111110000000000000111011100011 \
b10 J
b10 V
b10 r
b100 l
b100 *"
b0 g
b0 {
b0 2"
b1100 k
b100 m
b1000 n
b1000 +"
b10 +
b101 X
b101 Z
b100 Y
b100 [
b1000 D
b101010000000000000000 ?"
b1010 ="
b1 >"
b0 ;"
b1 B"
b1010 A"
b1010 @"
b10011 <"
1A
1B
#1600
0A
0B
#1700
b11 `
b11 0"
b1 a
b1 z
0v
b11 x
b11 }
0j
b10 g
b10 {
b10 2"
bx f
bx 1"
1w
1d
b0 y
b0 |
b0 7"
09"
08"
b1 p
b1 ("
b1010 q
b1010 '"
b101010000000000000000 o
b101010000000000000000 )"
b10011 s
b10011 $"
b10011 6"
b1010 i
b1010 #"
b1010 /"
b1010 c
b1010 ""
b1010 -"
b1 b
b1 !"
b1 ."
b0 t
b0 %"
b0 5"
b100 H
b100 e
b101010000010100010011 ]
b101010000010100010011 ~
b101010000010100010011 I
b101010000010100010011 U
b101010000010100010011 \
b1 J
b1 V
b1 r
b1000 l
b1000 *"
b1000 k
b1110 m
b100 n
b100 +"
b110 X
b110 Z
b101 Y
b101 [
b1001 D
b11111110000000000000000000000000 ?"
b11111111111111111111111111111100 ="
b11111111111111111111111111100000 >"
b1111111 ;"
b0 B"
b0 A"
b11101 @"
b1100011 <"
1A
1B
#1800
0A
0B
#1900
1v
1j
b0 a
b0 z
b0 f
b0 1"
b100 y
b100 |
b100 7"
19"
18"
0w
0d
b0 `
b0 0"
b11111110000000000000000000000000 o
b11111110000000000000000000000000 )"
b11111111111111111111111111111100 q
b11111111111111111111111111111100 '"
b11111111111111111111111111100000 p
b11111111111111111111111111100000 ("
b1100011 s
b1100011 $"
b1100011 6"
b11101 i
b11101 #"
b11101 /"
b0 c
b0 ""
b0 -"
b0 b
b0 !"
b0 ."
b1111111 t
b1111111 %"
b1111111 5"
b0 x
b0 }
b1000 H
b1000 e
b11111110000000000000111011100011 ]
b11111110000000000000111011100011 ~
b11111110000000000000111011100011 I
b11111110000000000000111011100011 U
b11111110000000000000111011100011 \
b10 J
b10 V
b10 r
b100 l
b100 *"
b0 g
b0 {
b0 2"
b1100 k
b100 m
b1000 n
b1000 +"
b11 +
b111 X
b111 Z
b110 Y
b110 [
b1010 D
b101010000000000000000 ?"
b1010 ="
b1 >"
b0 ;"
b1 B"
b1010 A"
b1010 @"
b10011 <"
1A
1B
#2000
0A
0B
#2100
b100 `
b100 0"
b1 a
b1 z
0v
b100 x
b100 }
0j
b11 g
b11 {
b11 2"
bx f
bx 1"
1w
1d
b0 y
b0 |
b0 7"
09"
08"
b1 p
b1 ("
b1010 q
b1010 '"
b101010000000000000000 o
b101010000000000000000 )"
b10011 s
b10011 $"
b10011 6"
b1010 i
b1010 #"
b1010 /"
b1010 c
b1010 ""
b1010 -"
b1 b
b1 !"
b1 ."
b0 t
b0 %"
b0 5"
b100 H
b100 e
b101010000010100010011 ]
b101010000010100010011 ~
b101010000010100010011 I
b101010000010100010011 U
b101010000010100010011 \
b1 J
b1 V
b1 r
b1000 l
b1000 *"
b1000 k
b1110 m
b100 n
b100 +"
b1000 X
b1000 Z
b111 Y
b111 [
b1011 D
b11111110000000000000000000000000 ?"
b11111111111111111111111111111100 ="
b11111111111111111111111111100000 >"
b1111111 ;"
b0 B"
b0 A"
b11101 @"
b1100011 <"
1A
1B
#2200
0A
0B
#2300
1v
1j
b0 a
b0 z
b0 f
b0 1"
b100 y
b100 |
b100 7"
19"
18"
0w
0d
b0 `
b0 0"
b11111110000000000000000000000000 o
b11111110000000000000000000000000 )"
b11111111111111111111111111111100 q
b11111111111111111111111111111100 '"
b11111111111111111111111111100000 p
b11111111111111111111111111100000 ("
b1100011 s
b1100011 $"
b1100011 6"
b11101 i
b11101 #"
b11101 /"
b0 c
b0 ""
b0 -"
b0 b
b0 !"
b0 ."
b1111111 t
b1111111 %"
b1111111 5"
b0 x
b0 }
b1000 H
b1000 e
b11111110000000000000111011100011 ]
b11111110000000000000111011100011 ~
b11111110000000000000111011100011 I
b11111110000000000000111011100011 U
b11111110000000000000111011100011 \
b10 J
b10 V
b10 r
b100 l
b100 *"
b0 g
b0 {
b0 2"
b1100 k
b100 m
b1000 n
b1000 +"
b100 +
b1001 X
b1001 Z
b1000 Y
b1000 [
b1100 D
b101010000000000000000 ?"
b1010 ="
b1 >"
b0 ;"
b1 B"
b1010 A"
b1010 @"
b10011 <"
1A
1B
#2400
0A
0B
#2500
b101 `
b101 0"
b1 a
b1 z
0v
b101 x
b101 }
0j
b100 g
b100 {
b100 2"
bx f
bx 1"
1w
1d
b0 y
b0 |
b0 7"
09"
08"
b1 p
b1 ("
b1010 q
b1010 '"
b101010000000000000000 o
b101010000000000000000 )"
b10011 s
b10011 $"
b10011 6"
b1010 i
b1010 #"
b1010 /"
b1010 c
b1010 ""
b1010 -"
b1 b
b1 !"
b1 ."
b0 t
b0 %"
b0 5"
b100 H
b100 e
b101010000010100010011 ]
b101010000010100010011 ~
b101010000010100010011 I
b101010000010100010011 U
b101010000010100010011 \
b1 J
b1 V
b1 r
b1000 l
b1000 *"
b1000 k
b1110 m
b100 n
b100 +"
b1010 X
b1010 Z
b1001 Y
b1001 [
b1101 D
b11111110000000000000000000000000 ?"
b11111111111111111111111111111100 ="
b11111111111111111111111111100000 >"
b1111111 ;"
b0 B"
b0 A"
b11101 @"
b1100011 <"
1A
1B
#2600
0A
0B
#2700
1v
1j
b0 a
b0 z
b0 f
b0 1"
b100 y
b100 |
b100 7"
19"
18"
0w
0d
b0 `
b0 0"
b11111110000000000000000000000000 o
b11111110000000000000000000000000 )"
b11111111111111111111111111111100 q
b11111111111111111111111111111100 '"
b11111111111111111111111111100000 p
b11111111111111111111111111100000 ("
b1100011 s
b1100011 $"
b1100011 6"
b11101 i
b11101 #"
b11101 /"
b0 c
b0 ""
b0 -"
b0 b
b0 !"
b0 ."
b1111111 t
b1111111 %"
b1111111 5"
b0 x
b0 }
b1000 H
b1000 e
b11111110000000000000111011100011 ]
b11111110000000000000111011100011 ~
b11111110000000000000111011100011 I
b11111110000000000000111011100011 U
b11111110000000000000111011100011 \
b10 J
b10 V
b10 r
b100 l
b100 *"
b0 g
b0 {
b0 2"
b1100 k
b100 m
b1000 n
b1000 +"
b101 +
b1011 X
b1011 Z
b1010 Y
b1010 [
b1110 D
b101010000000000000000 ?"
b1010 ="
b1 >"
b0 ;"
b1 B"
b1010 A"
b1010 @"
b10011 <"
1A
1B
#2800
0A
0B
#2900
b110 `
b110 0"
b1 a
b1 z
0v
b110 x
b110 }
0j
b101 g
b101 {
b101 2"
bx f
bx 1"
1w
1d
b0 y
b0 |
b0 7"
09"
08"
b1 p
b1 ("
b1010 q
b1010 '"
b101010000000000000000 o
b101010000000000000000 )"
b10011 s
b10011 $"
b10011 6"
b1010 i
b1010 #"
b1010 /"
b1010 c
b1010 ""
b1010 -"
b1 b
b1 !"
b1 ."
b0 t
b0 %"
b0 5"
b100 H
b100 e
b101010000010100010011 ]
b101010000010100010011 ~
b101010000010100010011 I
b101010000010100010011 U
b101010000010100010011 \
b1 J
b1 V
b1 r
b1000 l
b1000 *"
b1000 k
b1110 m
b100 n
b100 +"
b1100 X
b1100 Z
b1011 Y
b1011 [
b1111 D
b11111110000000000000000000000000 ?"
b11111111111111111111111111111100 ="
b11111111111111111111111111100000 >"
b1111111 ;"
b0 B"
b0 A"
b11101 @"
b1100011 <"
1A
1B
#3000
0A
0B
#3100
1v
1j
b0 a
b0 z
b0 f
b0 1"
b100 y
b100 |
b100 7"
19"
18"
0w
0d
b0 `
b0 0"
b11111110000000000000000000000000 o
b11111110000000000000000000000000 )"
b11111111111111111111111111111100 q
b11111111111111111111111111111100 '"
b11111111111111111111111111100000 p
b11111111111111111111111111100000 ("
b1100011 s
b1100011 $"
b1100011 6"
b11101 i
b11101 #"
b11101 /"
b0 c
b0 ""
b0 -"
b0 b
b0 !"
b0 ."
b1111111 t
b1111111 %"
b1111111 5"
b0 x
b0 }
b1000 H
b1000 e
b11111110000000000000111011100011 ]
b11111110000000000000111011100011 ~
b11111110000000000000111011100011 I
b11111110000000000000111011100011 U
b11111110000000000000111011100011 \
b10 J
b10 V
b10 r
b100 l
b100 *"
b0 g
b0 {
b0 2"
b1100 k
b100 m
b1000 n
b1000 +"
b110 +
b1101 X
b1101 Z
b1100 Y
b1100 [
b10000 D
b101010000000000000000 ?"
b1010 ="
b1 >"
b0 ;"
b1 B"
b1010 A"
b1010 @"
b10011 <"
1A
1B
#3200
0A
0B
#3300
b111 `
b111 0"
b1 a
b1 z
0v
b111 x
b111 }
0j
b110 g
b110 {
b110 2"
bx f
bx 1"
1w
1d
b0 y
b0 |
b0 7"
09"
08"
b1 p
b1 ("
b1010 q
b1010 '"
b101010000000000000000 o
b101010000000000000000 )"
b10011 s
b10011 $"
b10011 6"
b1010 i
b1010 #"
b1010 /"
b1010 c
b1010 ""
b1010 -"
b1 b
b1 !"
b1 ."
b0 t
b0 %"
b0 5"
b100 H
b100 e
b101010000010100010011 ]
b101010000010100010011 ~
b101010000010100010011 I
b101010000010100010011 U
b101010000010100010011 \
b1 J
b1 V
b1 r
b1000 l
b1000 *"
b1000 k
b1110 m
b100 n
b100 +"
b1110 X
b1110 Z
b1101 Y
b1101 [
b10001 D
b11111110000000000000000000000000 ?"
b11111111111111111111111111111100 ="
b11111111111111111111111111100000 >"
b1111111 ;"
b0 B"
b0 A"
b11101 @"
b1100011 <"
1A
1B
#3400
0A
0B
#3500
1v
1j
b0 a
b0 z
b0 f
b0 1"
b100 y
b100 |
b100 7"
19"
18"
0w
0d
b0 `
b0 0"
b11111110000000000000000000000000 o
b11111110000000000000000000000000 )"
b11111111111111111111111111111100 q
b11111111111111111111111111111100 '"
b11111111111111111111111111100000 p
b11111111111111111111111111100000 ("
b1100011 s
b1100011 $"
b1100011 6"
b11101 i
b11101 #"
b11101 /"
b0 c
b0 ""
b0 -"
b0 b
b0 !"
b0 ."
b1111111 t
b1111111 %"
b1111111 5"
b0 x
b0 }
b1000 H
b1000 e
b11111110000000000000111011100011 ]
b11111110000000000000111011100011 ~
b11111110000000000000111011100011 I
b11111110000000000000111011100011 U
b11111110000000000000111011100011 \
b10 J
b10 V
b10 r
b100 l
b100 *"
b0 g
b0 {
b0 2"
b1100 k
b100 m
b1000 n
b1000 +"
b111 +
b1111 X
b1111 Z
b1110 Y
b1110 [
b10010 D
b101010000000000000000 ?"
b1010 ="
b1 >"
b0 ;"
b1 B"
b1010 A"
b1010 @"
b10011 <"
1A
1B
#3600
0A
0B
#3700
b1000 `
b1000 0"
b1 a
b1 z
0v
b1000 x
b1000 }
0j
b111 g
b111 {
b111 2"
bx f
bx 1"
1w
1d
b0 y
b0 |
b0 7"
09"
08"
b1 p
b1 ("
b1010 q
b1010 '"
b101010000000000000000 o
b101010000000000000000 )"
b10011 s
b10011 $"
b10011 6"
b1010 i
b1010 #"
b1010 /"
b1010 c
b1010 ""
b1010 -"
b1 b
b1 !"
b1 ."
b0 t
b0 %"
b0 5"
b100 H
b100 e
b101010000010100010011 ]
b101010000010100010011 ~
b101010000010100010011 I
b101010000010100010011 U
b101010000010100010011 \
b1 J
b1 V
b1 r
b1000 l
b1000 *"
b1000 k
b1110 m
b100 n
b100 +"
b10000 X
b10000 Z
b1111 Y
b1111 [
b10011 D
b11111110000000000000000000000000 ?"
b11111111111111111111111111111100 ="
b11111111111111111111111111100000 >"
b1111111 ;"
b0 B"
b0 A"
b11101 @"
b1100011 <"
1A
1B
#3800
0A
0B
